ISA 401: Business Intelligence & Data Visualization
…
.panelset[
.panel[.panel-name[Data]

.font80[

```r
pacman::p_load(tidyverse, palmerpenguins, magrittr)

penguins_tbl = penguins # our data for today

penguins_tbl # printing it out
```

```
## # A tibble: 344 x 8
##    species island    bill_length_mm bill_depth_mm flipper_length_mm body_mass_g
##    <fct>   <fct>              <dbl>         <dbl>             <int>       <int>
##  1 Adelie  Torgersen           39.1          18.7               181        3750
##  2 Adelie  Torgersen           39.5          17.4               186        3800
##  3 Adelie  Torgersen           40.3          18                 195        3250
##  4 Adelie  Torgersen           NA            NA                  NA          NA
##  5 Adelie  Torgersen           36.7          19.3               193        3450
##  6 Adelie  Torgersen           39.3          20.6               190        3650
##  7 Adelie  Torgersen           38.9          17.8               181        3625
##  8 Adelie  Torgersen           39.2          19.6               195        4675
##  9 Adelie  Torgersen           34.1          18.1               193        3475
## 10 Adelie  Torgersen           42            20.2               190        4250
## # ... with 334 more rows, and 2 more variables: sex <fct>, year <int>
```
…
.font80[

```r
penguins_tbl %<>%  
  # selecting relevant cols
  select(species, bill_length_mm, bill_depth_mm, flipper_length_mm, body_mass_g) %>% 
  na.omit() %>% # removing NAs
  mutate_at(vars(-species), scale) # scaling numeric variables

penguins_tbl # printing it out
```

```
## # A tibble: 342 x 5
##    species bill_length_mm[,1] bill_depth_mm[,1] flipper_length_~ body_mass_g[,1]
##    <fct>                <dbl>             <dbl>            <dbl>           <dbl>
##  1 Adelie              -0.883            0.784            -1.42          -0.563 
##  2 Adelie              -0.810            0.126            -1.06          -0.501 
##  3 Adelie              -0.663            0.430            -0.421         -1.19  
##  4 Adelie              -1.32             1.09             -0.563         -0.937 
##  5 Adelie              -0.847            1.75             -0.776         -0.688 
##  6 Adelie              -0.920            0.329            -1.42          -0.719 
##  7 Adelie              -0.865            1.24             -0.421          0.590 
##  8 Adelie              -1.80             0.480            -0.563         -0.906 
##  9 Adelie              -0.352            1.54             -0.776          0.0602
## 10 Adelie              -1.12            -0.0259           -1.06          -1.12  
## # ... with 332 more rows
```
…
